﻿ID;Title;Description;link
1;First Time Right;This App can be used to capture the FTR data for each IDH.;ftr
2;Quality in Box;This App can be used to capture the QIB data for each IDH;qib
3;FTR Dashboard;FTR dashboard provides insights from the FTR dashboard;ftr_dashboard